^D:\COOL SHIT\SCRIPTHOOKV_SDK_1.0.350.2\SAMPLES\NATIVETRAINER\KEYBOARD.CPP
/c /Zi /nologo /W3 /WX- /Od /D WIN32 /D _DEBUG /D _WINDOWS /D _USRDLL /D NativeTrainer_EXPORTS /D _WINDLL /D _MBCS /Gm /EHsc /RTC1 /MTd /GS /fp:precise /Zc:wchar_t /Zc:forScope /Fo"TMP\DEBUG\\" /Fd"TMP\DEBUG\VC120.PDB" /Gd /TP D:\COOL SHIT\SCRIPTHOOKV_SDK_1.0.350.2\SAMPLES\NATIVETRAINER\KEYBOARD.CPP
^D:\COOL SHIT\SCRIPTHOOKV_SDK_1.0.350.2\SAMPLES\NATIVETRAINER\MAIN.CPP
/c /Zi /nologo /W3 /WX- /Od /D WIN32 /D _DEBUG /D _WINDOWS /D _USRDLL /D NativeTrainer_EXPORTS /D _WINDLL /D _MBCS /Gm /EHsc /RTC1 /MTd /GS /fp:precise /Zc:wchar_t /Zc:forScope /Fo"TMP\DEBUG\\" /Fd"TMP\DEBUG\VC120.PDB" /Gd /TP D:\COOL SHIT\SCRIPTHOOKV_SDK_1.0.350.2\SAMPLES\NATIVETRAINER\MAIN.CPP
^D:\COOL SHIT\SCRIPTHOOKV_SDK_1.0.350.2\SAMPLES\NATIVETRAINER\SCRIPT.CPP
/c /Zi /nologo /W3 /WX- /Od /D WIN32 /D _DEBUG /D _WINDOWS /D _USRDLL /D NativeTrainer_EXPORTS /D _WINDLL /D _MBCS /Gm /EHsc /RTC1 /MTd /GS /fp:precise /Zc:wchar_t /Zc:forScope /Fo"TMP\DEBUG\\" /Fd"TMP\DEBUG\VC120.PDB" /Gd /TP D:\COOL SHIT\SCRIPTHOOKV_SDK_1.0.350.2\SAMPLES\NATIVETRAINER\SCRIPT.CPP
